%YAML 1.1
%TAG !u! tag:unity3d.com,2011:
--- !u!114 &11400000
MonoBehaviour:
  m_ObjectHideFlags: 0
  m_CorrespondingSourceObject: {fileID: 0}
  m_PrefabInstance: {fileID: 0}
  m_PrefabAsset: {fileID: 0}
  m_GameObject: {fileID: 0}
  m_Enabled: 1
  m_EditorHideFlags: 0
  m_Script: {fileID: 19001, guid: 0000000000000000e000000000000000, type: 0}
  m_Name: RussoOne-Regular SDF
  m_EditorClassIdentifier: 
  m_Version: 1.1.0
  m_Material: {fileID: 1933286051541554024}
  m_SourceFontFileGUID: 5bf944191bf5a4089bbf5afbcabce63d
  m_SourceFontFile: {fileID: 12800000, guid: 5bf944191bf5a4089bbf5afbcabce63d, type: 3}
  m_AtlasPopulationMode: 1
  InternalDynamicOS: 0
  m_FaceInfo:
    m_FaceIndex: 0
    m_FamilyName: Russo One
    m_StyleName: Regular
    m_PointSize: 90
    m_Scale: 1
    m_LineHeight: 108.450005
    m_AscentLine: 83.340004
    m_CapLine: 63
    m_MeanLine: 48
    m_Baseline: 0
    m_DescentLine: -25.11
    m_SuperscriptOffset: 83.340004
    m_SuperscriptSize: 0.5
    m_SubscriptOffset: -25.11
    m_SubscriptSize: 0.5
    m_UnderlineOffset: -9
    m_UnderlineThickness: 4.5
    m_StrikethroughOffset: 19.2
    m_StrikethroughThickness: 4.5
    m_TabWidth: 27
  m_FontWeightTable:
  - regularTypeface: {fileID: 0}
    italicTypeface: {fileID: 0}
  - regularTypeface: {fileID: 0}
    italicTypeface: {fileID: 0}
  - regularTypeface: {fileID: 0}
    italicTypeface: {fileID: 0}
  - regularTypeface: {fileID: 0}
    italicTypeface: {fileID: 0}
  - regularTypeface: {fileID: 0}
    italicTypeface: {fileID: 0}
  - regularTypeface: {fileID: 0}
    italicTypeface: {fileID: 0}
  - regularTypeface: {fileID: 0}
    italicTypeface: {fileID: 0}
  - regularTypeface: {fileID: 0}
    italicTypeface: {fileID: 0}
  - regularTypeface: {fileID: 0}
    italicTypeface: {fileID: 0}
  - regularTypeface: {fileID: 0}
    italicTypeface: {fileID: 0}
  m_GlyphTable: []
  m_CharacterTable: []
  m_AtlasTextures:
  - {fileID: 2503866907045140572}
  m_AtlasTextureIndex: 0
  m_IsMultiAtlasTexturesEnabled: 0
  m_ClearDynamicDataOnBuild: 0
  m_AtlasWidth: 1024
  m_AtlasHeight: 1024
  m_AtlasPadding: 9
  m_AtlasRenderMode: 4165
  m_UsedGlyphRects: []
  m_FreeGlyphRects:
  - m_X: 0
    m_Y: 0
    m_Width: 1023
    m_Height: 1023
  m_FontFeatureTable:
    m_GlyphPairAdjustmentRecords: []
  m_FallbackFontAssetTable: []
  m_fontAssetCreationEditorSettings:
    sourceFontFileGUID: 5bf944191bf5a4089bbf5afbcabce63d
    faceIndex: 0
    pointSizeSamplingMode: 0
    pointSize: 90
    padding: 9
    packingMode: 0
    atlasWidth: 1024
    atlasHeight: 1024
    characterSetSelectionMode: 7
    characterSequence: 
    referencedFontAssetGUID: 
    referencedTextAssetGUID: 
    fontStyle: 0
    fontStyleModifier: 0
    renderMode: 4165
    includeFontFeatures: 0
  m_RegularStyleWeight: 0
  m_RegularStyleSpacing: 0
  m_BoldStyleWeight: 0.75
  m_BoldStyleSpacing: 7
  m_ItalicStyleSlant: 35
  m_TabMultiple: 10
--- !u!21 &1933286051541554024
Material:
  serializedVersion: 8
  m_ObjectHideFlags: 0
  m_CorrespondingSourceObject: {fileID: 0}
  m_PrefabInstance: {fileID: 0}
  m_PrefabAsset: {fileID: 0}
  m_Name: RussoOne-Regular Atlas Material
  m_Shader: {fileID: 19011, guid: 0000000000000000f000000000000000, type: 0}
  m_ValidKeywords: []
  m_InvalidKeywords: []
  m_LightmapFlags: 4
  m_EnableInstancingVariants: 0
  m_DoubleSidedGI: 0
  m_CustomRenderQueue: -1
  stringTagMap: {}
  disabledShaderPasses: []
  m_SavedProperties:
    serializedVersion: 3
    m_TexEnvs:
    - _MainTex:
        m_Texture: {fileID: 2503866907045140572}
        m_Scale: {x: 1, y: 1}
        m_Offset: {x: 0, y: 0}
    m_Ints: []
    m_Floats:
    - _FaceDilate: 0
    - _GradientScale: 10
    - _OutlineSoftness: 0
    - _OutlineWidth: 0
    - _PerspectiveFilter: 0.875
    - _ScaleRatioA: 1
    - _ScaleRatioB: 1
    - _ScaleRatioC: 1
    - _ScaleX: 1
    - _ScaleY: 1
    - _ShaderFlags: 0
    - _Sharpness: 0
    - _TextureHeight: 1024
    - _TextureWidth: 1024
    - _UnderlayDilate: 0
    - _UnderlayOffsetX: 0
    - _UnderlayOffsetY: 0
    - _UnderlaySoftness: 0
    - _VertexOffsetX: 0
    - _VertexOffsetY: 0
    - _WeightBold: 0.75
    - _WeightNormal: 0
    m_Colors:
    - _FaceColor: {r: 1, g: 1, b: 1, a: 1}
    - _OutlineColor: {r: 0, g: 0, b: 0, a: 1}
    - _UnderlayColor: {r: 0, g: 0, b: 0, a: 0.5}
  m_BuildTextureStacks: []
--- !u!28 &2503866907045140572
Texture2D:
  m_ObjectHideFlags: 0
  m_CorrespondingSourceObject: {fileID: 0}
  m_PrefabInstance: {fileID: 0}
  m_PrefabAsset: {fileID: 0}
  m_Name: RussoOne-Regular Atlas
  m_ImageContentsHash:
    serializedVersion: 2
    Hash: 00000000000000000000000000000000
  m_ForcedFallbackFormat: 4
  m_DownscaleFallback: 0
  m_IsAlphaChannelOptional: 0
  serializedVersion: 2
  m_Width: 0
  m_Height: 0
  m_CompleteImageSize: 0
  m_MipsStripped: 0
  m_TextureFormat: 1
  m_MipCount: 1
  m_IsReadable: 1
  m_IsPreProcessed: 0
  m_IgnoreMasterTextureLimit: 0
  m_StreamingMipmaps: 0
  m_StreamingMipmapsPriority: 0
  m_VTOnly: 0
  m_AlphaIsTransparency: 0
  m_ImageCount: 1
  m_TextureDimension: 2
  m_TextureSettings:
    serializedVersion: 2
    m_FilterMode: 1
    m_Aniso: 1
    m_MipBias: 0
    m_WrapU: 0
    m_WrapV: 0
    m_WrapW: 0
  m_LightmapFormat: 0
  m_ColorSpace: 0
  m_PlatformBlob: 
  image data: 0
  _typelessdata: 
  m_StreamData:
    serializedVersion: 2
    offset: 0
    size: 0
    path: 
